Labs/Virgin/Lab_3_3/simulation/qsim/LiveDesign.msim.vcd
$comment
	File created using the following command:
		vcd file LiveDesign.msim.vcd -direction
$end
$date
	Thu Feb 15 14:33:52 2018
$end
$version
	ModelSim Version 10.5b
$end
$timescale
	1ps
$end

$scope module Counter_vlg_vec_tst $end
$var reg 1 ! CLOCK_50 $end
$var reg 2 " KEY [1:0] $end
$var reg 3 # SW [2:0] $end
$var wire 1 $ counter_out [3] $end
$var wire 1 % counter_out [2] $end
$var wire 1 & counter_out [1] $end
$var wire 1 ' counter_out [0] $end
$var wire 1 ( cout $end
$var wire 1 ) HEX0 [7] $end
$var wire 1 * HEX0 [6] $end
$var wire 1 + HEX0 [5] $end
$var wire 1 , HEX0 [4] $end
$var wire 1 - HEX0 [3] $end
$var wire 1 . HEX0 [2] $end
$var wire 1 / HEX0 [1] $end
$var wire 1 0 HEX0 [0] $end
$var wire 1 1 HEX1 [7] $end
$var wire 1 2 HEX1 [6] $end
$var wire 1 3 HEX1 [5] $end
$var wire 1 4 HEX1 [4] $end
$var wire 1 5 HEX1 [3] $end
$var wire 1 6 HEX1 [2] $end
$var wire 1 7 HEX1 [1] $end
$var wire 1 8 HEX1 [0] $end
$var wire 1 9 HEX2 [7] $end
$var wire 1 : HEX2 [6] $end
$var wire 1 ; HEX2 [5] $end
$var wire 1 < HEX2 [4] $end
$var wire 1 = HEX2 [3] $end
$var wire 1 > HEX2 [2] $end
$var wire 1 ? HEX2 [1] $end
$var wire 1 @ HEX2 [0] $end

$scope module i1 $end
$var wire 1 A gnd $end
$var wire 1 B vcc $end
$var wire 1 C unknown $end
$var tri1 1 D devclrn $end
$var tri1 1 E devpor $end
$var tri1 1 F devoe $end
$var wire 1 G cout~output_o $end
$var wire 1 H counter_out[3]~output_o $end
$var wire 1 I counter_out[2]~output_o $end
$var wire 1 J counter_out[1]~output_o $end
$var wire 1 K counter_out[0]~output_o $end
$var wire 1 L HEX0[7]~output_o $end
$var wire 1 M HEX0[6]~output_o $end
$var wire 1 N HEX0[5]~output_o $end
$var wire 1 O HEX0[4]~output_o $end
$var wire 1 P HEX0[3]~output_o $end
$var wire 1 Q HEX0[2]~output_o $end
$var wire 1 R HEX0[1]~output_o $end
$var wire 1 S HEX0[0]~output_o $end
$var wire 1 T HEX1[7]~output_o $end
$var wire 1 U HEX1[6]~output_o $end
$var wire 1 V HEX1[5]~output_o $end
$var wire 1 W HEX1[4]~output_o $end
$var wire 1 X HEX1[3]~output_o $end
$var wire 1 Y HEX1[2]~output_o $end
$var wire 1 Z HEX1[1]~output_o $end
$var wire 1 [ HEX1[0]~output_o $end
$var wire 1 \ HEX2[7]~output_o $end
$var wire 1 ] HEX2[6]~output_o $end
$var wire 1 ^ HEX2[5]~output_o $end
$var wire 1 _ HEX2[4]~output_o $end
$var wire 1 ` HEX2[3]~output_o $end
$var wire 1 a HEX2[2]~output_o $end
$var wire 1 b HEX2[1]~output_o $end
$var wire 1 c HEX2[0]~output_o $end
$var wire 1 d CLOCK_50~input_o $end
$var wire 1 e CLOCK_50~inputclkctrl_outclk $end
$var wire 1 f KEY[1]~input_o $end
$var wire 1 g inst2|LPM_COUNTER_component|auto_generated|counter_comb_bita0~1_cout $end
$var wire 1 h inst2|LPM_COUNTER_component|auto_generated|counter_comb_bita0~combout $end
$var wire 1 i ~GND~combout $end
$var wire 1 j KEY[0]~input_o $end
$var wire 1 k inst2|LPM_COUNTER_component|auto_generated|time_to_clear~7_combout $end
$var wire 1 l inst2|LPM_COUNTER_component|auto_generated|time_to_clear~3_combout $end
$var wire 1 m inst2|LPM_COUNTER_component|auto_generated|time_to_clear~0_combout $end
$var wire 1 n inst2|LPM_COUNTER_component|auto_generated|time_to_clear~1_combout $end
$var wire 1 o inst2|LPM_COUNTER_component|auto_generated|time_to_clear~2_combout $end
$var wire 1 p inst2|LPM_COUNTER_component|auto_generated|time_to_clear~4_combout $end
$var wire 1 q inst2|LPM_COUNTER_component|auto_generated|time_to_clear~6_combout $end
$var wire 1 r inst2|LPM_COUNTER_component|auto_generated|time_to_clear~5_combout $end
$var wire 1 s inst2|LPM_COUNTER_component|auto_generated|time_to_clear~combout $end
$var wire 1 t inst2|LPM_COUNTER_component|auto_generated|counter_reg_bit[25]~0_combout $end
$var wire 1 u inst2|LPM_COUNTER_component|auto_generated|counter_comb_bita0~COUT $end
$var wire 1 v inst2|LPM_COUNTER_component|auto_generated|counter_comb_bita1~combout $end
$var wire 1 w inst2|LPM_COUNTER_component|auto_generated|counter_comb_bita1~COUT $end
$var wire 1 x inst2|LPM_COUNTER_component|auto_generated|counter_comb_bita2~combout $end
$var wire 1 y inst2|LPM_COUNTER_component|auto_generated|counter_comb_bita2~COUT $end
$var wire 1 z inst2|LPM_COUNTER_component|auto_generated|counter_comb_bita3~combout $end
$var wire 1 { inst2|LPM_COUNTER_component|auto_generated|counter_comb_bita3~COUT $end
$var wire 1 | inst2|LPM_COUNTER_component|auto_generated|counter_comb_bita4~combout $end
$var wire 1 } inst2|LPM_COUNTER_component|auto_generated|counter_comb_bita4~COUT $end
$var wire 1 ~ inst2|LPM_COUNTER_component|auto_generated|counter_comb_bita5~combout $end
$var wire 1 !! inst2|LPM_COUNTER_component|auto_generated|counter_comb_bita5~COUT $end
$var wire 1 "! inst2|LPM_COUNTER_component|auto_generated|counter_comb_bita6~combout $end
$var wire 1 #! inst2|LPM_COUNTER_component|auto_generated|counter_comb_bita6~COUT $end
$var wire 1 $! inst2|LPM_COUNTER_component|auto_generated|counter_comb_bita7~combout $end
$var wire 1 %! inst2|LPM_COUNTER_component|auto_generated|counter_comb_bita7~COUT $end
$var wire 1 &! inst2|LPM_COUNTER_component|auto_generated|counter_comb_bita8~combout $end
$var wire 1 '! inst2|LPM_COUNTER_component|auto_generated|counter_comb_bita8~COUT $end
$var wire 1 (! inst2|LPM_COUNTER_component|auto_generated|counter_comb_bita9~combout $end
$var wire 1 )! inst2|LPM_COUNTER_component|auto_generated|counter_comb_bita9~COUT $end
$var wire 1 *! inst2|LPM_COUNTER_component|auto_generated|counter_comb_bita10~combout $end
$var wire 1 +! inst2|LPM_COUNTER_component|auto_generated|counter_comb_bita10~COUT $end
$var wire 1 ,! inst2|LPM_COUNTER_component|auto_generated|counter_comb_bita11~combout $end
$var wire 1 -! inst2|LPM_COUNTER_component|auto_generated|counter_comb_bita11~COUT $end
$var wire 1 .! inst2|LPM_COUNTER_component|auto_generated|counter_comb_bita12~combout $end
$var wire 1 /! inst2|LPM_COUNTER_component|auto_generated|counter_comb_bita12~COUT $end
$var wire 1 0! inst2|LPM_COUNTER_component|auto_generated|counter_comb_bita13~combout $end
$var wire 1 1! inst2|LPM_COUNTER_component|auto_generated|counter_comb_bita13~COUT $end
$var wire 1 2! inst2|LPM_COUNTER_component|auto_generated|counter_comb_bita14~combout $end
$var wire 1 3! inst2|LPM_COUNTER_component|auto_generated|counter_comb_bita14~COUT $end
$var wire 1 4! inst2|LPM_COUNTER_component|auto_generated|counter_comb_bita15~combout $end
$var wire 1 5! inst2|LPM_COUNTER_component|auto_generated|counter_comb_bita15~COUT $end
$var wire 1 6! inst2|LPM_COUNTER_component|auto_generated|counter_comb_bita16~combout $end
$var wire 1 7! inst2|LPM_COUNTER_component|auto_generated|counter_comb_bita16~COUT $end
$var wire 1 8! inst2|LPM_COUNTER_component|auto_generated|counter_comb_bita17~combout $end
$var wire 1 9! inst2|LPM_COUNTER_component|auto_generated|counter_comb_bita17~COUT $end
$var wire 1 :! inst2|LPM_COUNTER_component|auto_generated|counter_comb_bita18~combout $end
$var wire 1 ;! inst2|LPM_COUNTER_component|auto_generated|counter_comb_bita18~COUT $end
$var wire 1 <! inst2|LPM_COUNTER_component|auto_generated|counter_comb_bita19~combout $end
$var wire 1 =! inst2|LPM_COUNTER_component|auto_generated|counter_comb_bita19~COUT $end
$var wire 1 >! inst2|LPM_COUNTER_component|auto_generated|counter_comb_bita20~combout $end
$var wire 1 ?! inst2|LPM_COUNTER_component|auto_generated|counter_comb_bita20~COUT $end
$var wire 1 @! inst2|LPM_COUNTER_component|auto_generated|counter_comb_bita21~combout $end
$var wire 1 A! inst2|LPM_COUNTER_component|auto_generated|counter_comb_bita21~COUT $end
$var wire 1 B! inst2|LPM_COUNTER_component|auto_generated|counter_comb_bita22~combout $end
$var wire 1 C! inst2|LPM_COUNTER_component|auto_generated|counter_comb_bita22~COUT $end
$var wire 1 D! inst2|LPM_COUNTER_component|auto_generated|counter_comb_bita23~combout $end
$var wire 1 E! inst2|LPM_COUNTER_component|auto_generated|counter_comb_bita23~COUT $end
$var wire 1 F! inst2|LPM_COUNTER_component|auto_generated|counter_comb_bita24~combout $end
$var wire 1 G! inst2|LPM_COUNTER_component|auto_generated|counter_comb_bita24~COUT $end
$var wire 1 H! inst2|LPM_COUNTER_component|auto_generated|counter_comb_bita25~combout $end
$var wire 1 I! inst2|LPM_COUNTER_component|auto_generated|counter_comb_bita25~COUT $end
$var wire 1 J! inst2|LPM_COUNTER_component|auto_generated|counter_comb_bita25~0_combout $end
$var wire 1 K! inst2|LPM_COUNTER_component|auto_generated|cout_actual~combout $end
$var wire 1 L! inst15~q $end
$var wire 1 M! inst20~combout $end
$var wire 1 N! inst16~q $end
$var wire 1 O! inst21~combout $end
$var wire 1 P! inst17~q $end
$var wire 1 Q! inst22~0_combout $end
$var wire 1 R! inst22~combout $end
$var wire 1 S! inst18~q $end
$var wire 1 T! inst9|leds[6]~16_combout $end
$var wire 1 U! inst9|leds[5]~17_combout $end
$var wire 1 V! inst9|leds[4]~18_combout $end
$var wire 1 W! inst9|leds[3]~19_combout $end
$var wire 1 X! inst9|leds[2]~20_combout $end
$var wire 1 Y! inst9|leds[1]~21_combout $end
$var wire 1 Z! inst9|leds[0]~22_combout $end
$var wire 1 [! inst10|leds[6]~16_combout $end
$var wire 1 \! inst10|leds[5]~17_combout $end
$var wire 1 ]! inst10|leds[4]~18_combout $end
$var wire 1 ^! inst10|leds[3]~19_combout $end
$var wire 1 _! inst10|leds[2]~20_combout $end
$var wire 1 `! inst10|leds[1]~21_combout $end
$var wire 1 a! inst10|leds[0]~22_combout $end
$var wire 1 b! SW[1]~input_o $end
$var wire 1 c! SW[2]~input_o $end
$var wire 1 d! inst23~0_combout $end
$var wire 1 e! inst23~combout $end
$var wire 1 f! inst19~q $end
$var wire 1 g! SW[0]~input_o $end
$var wire 1 h! inst3|leds[6]~16_combout $end
$var wire 1 i! inst3|leds[5]~17_combout $end
$var wire 1 j! inst3|leds[4]~18_combout $end
$var wire 1 k! inst3|leds[3]~19_combout $end
$var wire 1 l! inst3|leds[2]~20_combout $end
$var wire 1 m! inst3|leds[1]~21_combout $end
$var wire 1 n! inst3|leds[0]~22_combout $end
$var wire 1 o! inst2|LPM_COUNTER_component|auto_generated|counter_reg_bit [25] $end
$var wire 1 p! inst2|LPM_COUNTER_component|auto_generated|counter_reg_bit [24] $end
$var wire 1 q! inst2|LPM_COUNTER_component|auto_generated|counter_reg_bit [23] $end
$var wire 1 r! inst2|LPM_COUNTER_component|auto_generated|counter_reg_bit [22] $end
$var wire 1 s! inst2|LPM_COUNTER_component|auto_generated|counter_reg_bit [21] $end
$var wire 1 t! inst2|LPM_COUNTER_component|auto_generated|counter_reg_bit [20] $end
$var wire 1 u! inst2|LPM_COUNTER_component|auto_generated|counter_reg_bit [19] $end
$var wire 1 v! inst2|LPM_COUNTER_component|auto_generated|counter_reg_bit [18] $end
$var wire 1 w! inst2|LPM_COUNTER_component|auto_generated|counter_reg_bit [17] $end
$var wire 1 x! inst2|LPM_COUNTER_component|auto_generated|counter_reg_bit [16] $end
$var wire 1 y! inst2|LPM_COUNTER_component|auto_generated|counter_reg_bit [15] $end
$var wire 1 z! inst2|LPM_COUNTER_component|auto_generated|counter_reg_bit [14] $end
$var wire 1 {! inst2|LPM_COUNTER_component|auto_generated|counter_reg_bit [13] $end
$var wire 1 |! inst2|LPM_COUNTER_component|auto_generated|counter_reg_bit [12] $end
$var wire 1 }! inst2|LPM_COUNTER_component|auto_generated|counter_reg_bit [11] $end
$var wire 1 ~! inst2|LPM_COUNTER_component|auto_generated|counter_reg_bit [10] $end
$var wire 1 !" inst2|LPM_COUNTER_component|auto_generated|counter_reg_bit [9] $end
$var wire 1 "" inst2|LPM_COUNTER_component|auto_generated|counter_reg_bit [8] $end
$var wire 1 #" inst2|LPM_COUNTER_component|auto_generated|counter_reg_bit [7] $end
$var wire 1 $" inst2|LPM_COUNTER_component|auto_generated|counter_reg_bit [6] $end
$var wire 1 %" inst2|LPM_COUNTER_component|auto_generated|counter_reg_bit [5] $end
$var wire 1 &" inst2|LPM_COUNTER_component|auto_generated|counter_reg_bit [4] $end
$var wire 1 '" inst2|LPM_COUNTER_component|auto_generated|counter_reg_bit [3] $end
$var wire 1 (" inst2|LPM_COUNTER_component|auto_generated|counter_reg_bit [2] $end
$var wire 1 )" inst2|LPM_COUNTER_component|auto_generated|counter_reg_bit [1] $end
$var wire 1 *" inst2|LPM_COUNTER_component|auto_generated|counter_reg_bit [0] $end
$upscope $end
$upscope $end
$enddefinitions $end
#0
$dumpvars
0!
b11 "
bx #
x'
x&
x%
x$
x(
x0
x/
x.
x-
x,
x+
x*
0)
x8
x7
x6
x5
x4
x3
x2
01
x@
x?
x>
x=
x<
x;
x:
09
0A
1B
xC
1D
1E
1F
xG
xH
xI
xJ
xK
0L
xM
xN
xO
xP
xQ
xR
xS
0T
xU
xV
xW
xX
xY
xZ
x[
0\
x]
x^
x_
x`
xa
xb
xc
0d
xe
1f
xg
xh
0i
1j
xk
xl
xm
xn
xo
xp
xq
xr
xs
xt
xu
xv
xw
xx
xy
xz
x{
x|
x}
x~
x!!
x"!
x#!
x$!
x%!
x&!
x'!
x(!
x)!
x*!
x+!
x,!
x-!
x.!
x/!
x0!
x1!
x2!
x3!
x4!
x5!
x6!
x7!
x8!
x9!
x:!
x;!
x<!
x=!
x>!
x?!
x@!
xA!
xB!
xC!
xD!
xE!
xF!
xG!
xH!
xI!
xJ!
xK!
0L!
xM!
0N!
xO!
0P!
xQ!
xR!
0S!
xT!
xU!
xV!
xW!
xX!
xY!
xZ!
x[!
x\!
x]!
x^!
x_!
x`!
xa!
xb!
xc!
xd!
xe!
0f!
xg!
xh!
xi!
xj!
xk!
xl!
xm!
xn!
0*"
0)"
0("
0'"
0&"
0%"
0$"
0#"
0""
0!"
0~!
0}!
0|!
0{!
0z!
0y!
0x!
0w!
0v!
0u!
0t!
0s!
0r!
0q!
0p!
0o!
$end
#173
0e
#478
0q
#592
0Q!
#599
0d!
#624
0o
#738
0Y!
#741
0k
#743
0X!
#748
09!
05!
#750
0!!
#755
0{
#759
01!
0-!
#760
0I!
0)!
0w
#761
0E!
0A!
0%!
#765
0=!
#815
0n
#868
0m
#881
1;!
#883
17!
#884
1u
#885
1#!
#887
1}
#889
0O!
#893
1/!
#894
1+!
1'!
1y
#895
1G!
0M!
#896
13!
#898
1C!
1?!
#914
0R!
#929
0`!
0a!
#932
0\!
#934
0_!
#935
0^!
#936
0]!
#949
0l
#1010
0e!
#1022
0[!
#1060
0Z!
#1061
0U!
#1082
0V!
#1093
0W!
#1142
0p
#1166
1r
#1254
0T!
#1260
06!
0:!
#1262
0"!
#1267
0|
#1271
0.!
02!
#1272
0x
0*!
0J!
#1273
0&!
0B!
0F!
#1277
0>!
#1393
0<!
#1395
08!
#1396
0v
#1397
0$!
#1399
0~
#1405
00!
#1406
0z
0(!
0,!
#1407
0H!
#1408
04!
#1410
0@!
0D!
#1620
0s
#2374
0K!
#3809
1g
#4345
1h
#4415
0P
0-
#4448
0t
#4659
0[
08
#4792
0J
0&
#4793
0H
0$
#4956
0O
0,
#5239
0Z
07
#5471
1M
1*
#5665
0I
0%
#5711
0X
05
#6031
0Y
06
#6597
0N
0+
#6856
1U
12
#6933
0W
04
#7076
0K
0'
#7153
0R
0/
#7691
0G
0(
#7697
0Q
0.
#7871
0V
03
#7902
0S
00
#10000
1!
#10694
1d
#10881
1e
#13247
1*"
#13908
0u
#13968
0h
#14444
1v
#20000
0!
#20875
0d
#21048
0e
#30000
1!
#30694
1d
#30881
1e
#33247
0*"
1)"
#33977
0v
#34045
1h
#34061
1w
#34131
1u
#34197
0w
#34667
1v
#40000
0!
#40875
0d
#41048
0e
#50000
1!
#50694
1d
#50881
1e
#53247
1*"
#53908
0u
#53968
0h
#53974
1w
#54420
0v
#54510
1x
#60000
0!
#60875
0d
#61048
0e
#70000
1!
#70694
1d
#70881
1e
#73247
0*"
0)"
1("
#73922
0y
#73982
0x
#74007
0w
#74045
1h
#74053
1v
#74073
1y
#74131
1u
#74543
1x
#74643
0v
#80000
0!
#80875
0d
#81048
0e
#90000
1!
#90694
1d
#90881
1e
#93247
1*"
#93908
0u
#93968
0h
#94444
1v
#100000
0!
#100875
0d
#101048
0e
#110000
1!
#110694
1d
#110881
1e
#113247
0*"
1)"
#113977
0v
#114045
1h
#114061
1w
#114127
0y
#114131
1u
#114197
0w
#114263
1y
#114667
1v
#120000
0!
#120875
0d
#121048
0e
#130000
1!
#130694
1d
#130881
1e
#133247
1*"
#133889
1k
#133908
0u
#133968
0h
#133974
1w
#134040
0y
#134420
0v
#134486
0x
#134576
1z
#140000
0!
#140875
0d
#141048
0e
#150000
1!
#150694
1d
#150881
1e
#153247
0*"
0)"
0("
1'"
#153964
0z
#153988
0k
#154007
0w
#154038
1{
#154045
1h
#154053
1v
#154131
1u
#154141
1y
#154207
0{
#154643
0v
#154677
1z
#160000
0!
#160875
0d
#161048
0e
#170000
1!
#170694
1d
#170881
1e
#173247
1*"
#173908
0u
#173968
0h
#174444
1v
#180000
0!
#180875
0d
#181048
0e
#190000
1!
#190694
1d
#190881
1e
#193247
0*"
1)"
#193977
0v
#194045
1h
#194061
1w
#194131
1u
#194197
0w
#194667
1v
#200000
0!
#200875
0d
#201048
0e
#210000
1!
#210694
1d
#210881
1e
#213247
1*"
#213908
0u
#213968
0h
#213974
1w
#214420
0v
#214510
1x
#220000
0!
#220875
0d
#221048
0e
#230000
1!
#230694
1d
#230881
1e
#233247
0*"
0)"
1("
#233922
0y
#233982
0x
#233988
1{
#234007
0w
#234045
1h
#234053
1v
#234073
1y
#234131
1u
#234139
0{
#234543
1x
#234643
0v
#240000
0!
#240875
0d
#241048
0e
#250000
1!
#250694
1d
#250881
1e
#253247
1*"
#253908
0u
#253968
0h
#254444
1v
#260000
0!
#260875
0d
#261048
0e
#270000
1!
#270694
1d
#270881
1e
#273247
0*"
1)"
#273977
0v
#274045
1h
#274061
1w
#274127
0y
#274131
1u
#274193
1{
#274197
0w
#274263
1y
#274329
0{
#274667
1v
#280000
0!
#280875
0d
#281048
0e
#290000
1!
#290694
1d
#290881
1e
#293247
1*"
#293889
1k
#293908
0u
#293968
0h
#293974
1w
#294040
0y
#294106
1{
#294420
0v
#294486
0x
#294552
0z
#294642
1|
#300000
0!
#300875
0d
#301048
0e
#310000
1!
#310694
1d
#310881
1e
#313247
0*"
0)"
0("
0'"
1&"
#313911
0}
#313973
0|
#313988
0k
#314002
0{
#314007
0w
#314045
1h
#314051
1z
#314053
1v
#314068
1}
#314131
1u
#314141
1y
#314538
1|
#314643
0v
#314653
0z
#320000
0!
#320875
0d
#321048
0e
#330000
1!
#330694
1d
#330881
1e
#333247
1*"
#333908
0u
#333968
0h
#334444
1v
#340000
0!
#340875
0d
#341048
0e
#350000
1!
#350694
1d
#350881
1e
#353247
0*"
1)"
#353977
0v
#354045
1h
#354061
1w
#354131
1u
#354197
0w
#354667
1v
#360000
0!
#360875
0d
#361048
0e
#370000
1!
#370694
1d
#370881
1e
#373247
1*"
#373908
0u
#373968
0h
#373974
1w
#374420
0v
#374510
1x
#380000
0!
#380875
0d
#381048
0e
#390000
1!
#390694
1d
#390881
1e
#393247
0*"
0)"
1("
#393922
0y
#393982
0x
#394007
0w
#394045
1h
#394053
1v
#394073
1y
#394131
1u
#394543
1x
#394643
0v
#400000
0!
#400875
0d
#401048
0e
#410000
1!
#410694
1d
#410881
1e
#413247
1*"
#413908
0u
#413968
0h
#414444
1v
#420000
0!
#420875
0d
#421048
0e
#430000
1!
#430694
1d
#430881
1e
#433247
0*"
1)"
#433977
0v
#434045
1h
#434061
1w
#434127
0y
#434131
1u
#434197
0w
#434263
1y
#434667
1v
#440000
0!
#440875
0d
#441048
0e
#450000
1!
#450694
1d
#450881
1e
#453247
1*"
#453889
1k
#453908
0u
#453968
0h
#453974
1w
#454040
0y
#454420
0v
#454486
0x
#454576
1z
#460000
0!
#460875
0d
#461048
0e
#470000
1!
#470694
1d
#470881
1e
#473247
0*"
0)"
0("
1'"
#473964
0z
#473988
0k
#474007
0w
#474038
1{
#474045
1h
#474053
1v
#474104
0}
#474131
1u
#474141
1y
#474207
0{
#474273
1}
#474643
0v
#474677
1z
#480000
0!
#480875
0d
#481048
0e
#490000
1!
#490694
1d
#490881
1e
#493247
1*"
#493908
0u
#493968
0h
#494444
1v
#500000
0!
#500875
0d
#501048
0e
#510000
1!
#510694
1d
#510881
1e
#513247
0*"
1)"
#513977
0v
#514045
1h
#514061
1w
#514131
1u
#514197
0w
#514667
1v
#520000
0!
#520875
0d
#521048
0e
#530000
1!
#530694
1d
#530881
1e
#533247
1*"
#533908
0u
#533968
0h
#533974
1w
#534420
0v
#534510
1x
#540000
0!
#540875
0d
#541048
0e
#550000
1!
#550694
1d
#550881
1e
#553247
0*"
0)"
1("
#553922
0y
#553982
0x
#553988
1{
#554007
0w
#554045
1h
#554053
1v
#554054
0}
#554073
1y
#554131
1u
#554139
0{
#554205
1}
#554543
1x
#554643
0v
#560000
0!
#560875
0d
#561048
0e
#570000
1!
#570694
1d
#570881
1e
#573247
1*"
#573908
0u
#573968
0h
#574444
1v
#580000
0!
#580875
0d
#581048
0e
#590000
1!
#590694
1d
#590881
1e
#593247
0*"
1)"
#593977
0v
#594045
1h
#594061
1w
#594127
0y
#594131
1u
#594193
1{
#594197
0w
#594259
0}
#594263
1y
#594329
0{
#594395
1}
#594667
1v
#600000
0!
#600875
0d
#601048
0e
#610000
1!
#610694
1d
#610881
1e
#613247
1*"
#613889
1k
#613908
0u
#613968
0h
#613974
1w
#614040
0y
#614106
1{
#614172
0}
#614420
0v
#614486
0x
#614552
0z
#614618
0|
#614708
1~
#620000
0!
#620875
0d
#621048
0e
#630000
1!
#630694
1d
#630881
1e
#633247
0*"
0)"
0("
0'"
0&"
1%"
#633963
0~
#633988
0k
#634002
0{
#634007
0w
#634045
1h
#634047
1!!
#634051
1z
#634053
1v
#634131
1u
#634134
1}
#634141
1y
#634200
0!!
#634643
0v
#634653
0z
#634670
1~
#640000
0!
#640875
0d
#641048
0e
#650000
1!
#650694
1d
#650881
1e
#653247
1*"
#653908
0u
#653968
0h
#654444
1v
#660000
0!
#660875
0d
#661048
0e
#670000
1!
#670694
1d
#670881
1e
#673247
0*"
1)"
#673977
0v
#674045
1h
#674061
1w
#674131
1u
#674197
0w
#674667
1v
#680000
0!
#680875
0d
#681048
0e
#690000
1!
#690694
1d
#690881
1e
#693247
1*"
#693908
0u
#693968
0h
#693974
1w
#694420
0v
#694510
1x
#700000
0!
#700875
0d
#701048
0e
#710000
1!
#710694
1d
#710881
1e
#713247
0*"
0)"
1("
#713922
0y
#713982
0x
#714007
0w
#714045
1h
#714053
1v
#714073
1y
#714131
1u
#714543
1x
#714643
0v
#720000
0!
#720875
0d
#721048
0e
#730000
1!
#730694
1d
#730881
1e
#733247
1*"
#733908
0u
#733968
0h
#734444
1v
#740000
0!
#740875
0d
#741048
0e
#750000
1!
#750694
1d
#750881
1e
#753247
0*"
1)"
#753977
0v
#754045
1h
#754061
1w
#754127
0y
#754131
1u
#754197
0w
#754263
1y
#754667
1v
#760000
0!
#760875
0d
#761048
0e
#770000
1!
#770694
1d
#770881
1e
#773247
1*"
#773889
1k
#773908
0u
#773968
0h
#773974
1w
#774040
0y
#774420
0v
#774486
0x
#774576
1z
#780000
0!
#780875
0d
#781048
0e
#790000
1!
#790694
1d
#790881
1e
#793247
0*"
0)"
0("
1'"
#793964
0z
#793988
0k
#794007
0w
#794038
1{
#794045
1h
#794053
1v
#794131
1u
#794141
1y
#794207
0{
#794643
0v
#794677
1z
#800000
0!
#800875
0d
#801048
0e
#810000
1!
#810694
1d
#810881
1e
#813247
1*"
#813908
0u
#813968
0h
#814444
1v
#820000
0!
#820875
0d
#821048
0e
#830000
1!
#830694
1d
#830881
1e
#833247
0*"
1)"
#833977
0v
#834045
1h
#834061
1w
#834131
1u
#834197
0w
#834667
1v
#840000
0!
#840875
0d
#841048
0e
#850000
1!
#850694
1d
#850881
1e
#853247
1*"
#853908
0u
#853968
0h
#853974
1w
#854420
0v
#854510
1x
#860000
0!
#860875
0d
#861048
0e
#870000
1!
#870694
1d
#870881
1e
#873247
0*"
0)"
1("
#873922
0y
#873982
0x
#873988
1{
#874007
0w
#874045
1h
#874053
1v
#874073
1y
#874131
1u
#874139
0{
#874543
1x
#874643
0v
#880000
0!
#880875
0d
#881048
0e
#890000
1!
#890694
1d
#890881
1e
#893247
1*"
#893908
0u
#893968
0h
#894444
1v
#900000
0!
#900875
0d
#901048
0e
#910000
1!
#910694
1d
#910881
1e
#913247
0*"
1)"
#913977
0v
#914045
1h
#914061
1w
#914127
0y
#914131
1u
#914193
1{
#914197
0w
#914263
1y
#914329
0{
#914667
1v
#920000
0!
#920875
0d
#921048
0e
#930000
1!
#930694
1d
#930881
1e
#933247
1*"
#933889
1k
#933908
0u
#933968
0h
#933974
1w
#934040
0y
#934106
1{
#934420
0v
#934486
0x
#934552
0z
#934642
1|
#940000
0!
#940875
0d
#941048
0e
#950000
1!
#950694
1d
#950881
1e
#953247
0*"
0)"
0("
0'"
1&"
#953911
0}
#953973
0|
#953977
1!!
#953988
0k
#954002
0{
#954007
0w
#954045
1h
#954051
1z
#954053
1v
#954068
1}
#954131
1u
#954134
0!!
#954141
1y
#954538
1|
#954643
0v
#954653
0z
#960000
0!
#960875
0d
#961048
0e
#970000
1!
#970694
1d
#970881
1e
#973247
1*"
#973908
0u
#973968
0h
#974444
1v
#980000
0!
#980875
0d
#981048
0e
#990000
1!
#990694
1d
#990881
1e
#993247
0*"
1)"
#993977
0v
#994045
1h
#994061
1w
#994131
1u
#994197
0w
#994667
1v
#1000000
0!
#1000875
0d
#1001048
0e
#1010000
1!
#1010694
1d
#1010881
1e
#1013247
1*"
#1013908
0u
#1013968
0h
#1013974
1w
#1014420
0v
#1014510
1x
#1020000
0!
#1020875
0d
#1021048
0e
#1030000
1!
#1030694
1d
#1030881
1e
#1033247
0*"
0)"
1("
#1033922
0y
#1033982
0x
#1034007
0w
#1034045
1h
#1034053
1v
#1034073
1y
#1034131
1u
#1034543
1x
#1034643
0v
#1040000
0!
#1040875
0d
#1041048
0e
#1050000
1!
#1050694
1d
#1050881
1e
#1053247
1*"
#1053908
0u
#1053968
0h
#1054444
1v
#1060000
0!
#1060875
0d
#1061048
0e
#1070000
1!
#1070694
1d
#1070881
1e
#1073247
0*"
1)"
#1073977
0v
#1074045
1h
#1074061
1w
#1074127
0y
#1074131
1u
#1074197
0w
#1074263
1y
#1074667
1v
#1080000
0!
#1080875
0d
#1081048
0e
#1090000
1!
#1090694
1d
#1090881
1e
#1093247
1*"
#1093889
1k
#1093908
0u
#1093968
0h
#1093974
1w
#1094040
0y
#1094420
0v
#1094486
0x
#1094576
1z
#1100000
0!
#1100875
0d
#1101048
0e
#1110000
1!
#1110694
1d
#1110881
1e
#1113247
0*"
0)"
0("
1'"
#1113964
0z
#1113988
0k
#1114007
0w
#1114038
1{
#1114045
1h
#1114053
1v
#1114104
0}
#1114131
1u
#1114141
1y
#1114170
1!!
#1114207
0{
#1114273
1}
#1114339
0!!
#1114643
0v
#1114677
1z
#1120000
0!
#1120875
0d
#1121048
0e
#1130000
1!
#1130694
1d
#1130881
1e
#1133247
1*"
#1133908
0u
#1133968
0h
#1134444
1v
#1140000
0!
#1140875
0d
#1141048
0e
#1150000
1!
#1150694
1d
#1150881
1e
#1153247
0*"
1)"
#1153977
0v
#1154045
1h
#1154061
1w
#1154131
1u
#1154197
0w
#1154667
1v
#1160000
0!
#1160875
0d
#1161048
0e
#1170000
1!
#1170694
1d
#1170881
1e
#1173247
1*"
#1173908
0u
#1173968
0h
#1173974
1w
#1174420
0v
#1174510
1x
#1180000
0!
#1180875
0d
#1181048
0e
#1190000
1!
#1190694
1d
#1190881
1e
#1193247
0*"
0)"
1("
#1193922
0y
#1193982
0x
#1193988
1{
#1194007
0w
#1194045
1h
#1194053
1v
#1194054
0}
#1194073
1y
#1194120
1!!
#1194131
1u
#1194139
0{
#1194205
1}
#1194271
0!!
#1194543
1x
#1194643
0v
#1200000
0!
#1200875
0d
#1201048
0e
#1210000
1!
#1210694
1d
#1210881
1e
#1213247
1*"
#1213908
0u
#1213968
0h
#1214444
1v
#1220000
0!
#1220875
0d
#1221048
0e
#1230000
1!
#1230694
1d
#1230881
1e
#1233247
0*"
1)"
#1233977
0v
#1234045
1h
#1234061
1w
#1234127
0y
#1234131
1u
#1234193
1{
#1234197
0w
#1234259
0}
#1234263
1y
#1234325
1!!
#1234329
0{
#1234395
1}
#1234461
0!!
#1234667
1v
#1240000
0!
#1240875
0d
#1241048
0e
#1250000
1!
#1250694
1d
#1250881
1e
#1253247
1*"
#1253889
1k
#1253908
0u
#1253968
0h
#1253974
1w
#1254040
0y
#1254106
1{
#1254172
0}
#1254238
1!!
#1254420
0v
#1254486
0x
#1254552
0z
#1254618
0|
#1254684
0~
#1254774
1"!
#1260000
0!
#1260875
0d
#1261048
0e
#1270000
1!
#1270694
1d
#1270881
1e
