Labs/Virgin/Lab_3_3/simulation/qsim/LiveDesign.msim.vcd
$comment
	File created using the following command:
		vcd file LiveDesign.msim.vcd -direction
$end
$date
	Wed Feb 14 17:38:11 2018
$end
$version
	ModelSim Version 10.5b
$end
$timescale
	1ps
$end

$scope module Counter_vlg_vec_tst $end
$var reg 1 ! CLOCK_50 $end
$var reg 2 " KEY [1:0] $end
$var wire 1 # HEX0 [7] $end
$var wire 1 $ HEX0 [6] $end
$var wire 1 % HEX0 [5] $end
$var wire 1 & HEX0 [4] $end
$var wire 1 ' HEX0 [3] $end
$var wire 1 ( HEX0 [2] $end
$var wire 1 ) HEX0 [1] $end
$var wire 1 * HEX0 [0] $end
$var wire 1 + HEX1 [7] $end
$var wire 1 , HEX1 [6] $end
$var wire 1 - HEX1 [5] $end
$var wire 1 . HEX1 [4] $end
$var wire 1 / HEX1 [3] $end
$var wire 1 0 HEX1 [2] $end
$var wire 1 1 HEX1 [1] $end
$var wire 1 2 HEX1 [0] $end
$var wire 1 3 HEX2 [7] $end
$var wire 1 4 HEX2 [6] $end
$var wire 1 5 HEX2 [5] $end
$var wire 1 6 HEX2 [4] $end
$var wire 1 7 HEX2 [3] $end
$var wire 1 8 HEX2 [2] $end
$var wire 1 9 HEX2 [1] $end
$var wire 1 : HEX2 [0] $end
$var wire 1 ; HEX3 [7] $end
$var wire 1 < HEX3 [6] $end
$var wire 1 = HEX3 [5] $end
$var wire 1 > HEX3 [4] $end
$var wire 1 ? HEX3 [3] $end
$var wire 1 @ HEX3 [2] $end
$var wire 1 A HEX3 [1] $end
$var wire 1 B HEX3 [0] $end
$var wire 1 C HEX4 [7] $end
$var wire 1 D HEX4 [6] $end
$var wire 1 E HEX4 [5] $end
$var wire 1 F HEX4 [4] $end
$var wire 1 G HEX4 [3] $end
$var wire 1 H HEX4 [2] $end
$var wire 1 I HEX4 [1] $end
$var wire 1 J HEX4 [0] $end
$var wire 1 K HEX5 [7] $end
$var wire 1 L HEX5 [6] $end
$var wire 1 M HEX5 [5] $end
$var wire 1 N HEX5 [4] $end
$var wire 1 O HEX5 [3] $end
$var wire 1 P HEX5 [2] $end
$var wire 1 Q HEX5 [1] $end
$var wire 1 R HEX5 [0] $end
$var wire 1 S OUT [39] $end
$var wire 1 T OUT [38] $end
$var wire 1 U OUT [37] $end
$var wire 1 V OUT [36] $end
$var wire 1 W OUT [35] $end
$var wire 1 X OUT [34] $end
$var wire 1 Y OUT [33] $end
$var wire 1 Z OUT [32] $end
$var wire 1 [ OUT [31] $end
$var wire 1 \ OUT [30] $end
$var wire 1 ] OUT [29] $end
$var wire 1 ^ OUT [28] $end
$var wire 1 _ OUT [27] $end
$var wire 1 ` OUT [26] $end
$var wire 1 a OUT [25] $end
$var wire 1 b OUT [24] $end
$var wire 1 c OUT [23] $end
$var wire 1 d OUT [22] $end
$var wire 1 e OUT [21] $end
$var wire 1 f OUT [20] $end
$var wire 1 g OUT [19] $end
$var wire 1 h OUT [18] $end
$var wire 1 i OUT [17] $end
$var wire 1 j OUT [16] $end
$var wire 1 k OUT [15] $end
$var wire 1 l OUT [14] $end
$var wire 1 m OUT [13] $end
$var wire 1 n OUT [12] $end
$var wire 1 o OUT [11] $end
$var wire 1 p OUT [10] $end
$var wire 1 q OUT [9] $end
$var wire 1 r OUT [8] $end
$var wire 1 s OUT [7] $end
$var wire 1 t OUT [6] $end
$var wire 1 u OUT [5] $end
$var wire 1 v OUT [4] $end
$var wire 1 w OUT [3] $end
$var wire 1 x OUT [2] $end
$var wire 1 y OUT [1] $end
$var wire 1 z OUT [0] $end

$scope module i1 $end
$var wire 1 { gnd $end
$var wire 1 | vcc $end
$var wire 1 } unknown $end
$var tri1 1 ~ devclrn $end
$var tri1 1 !! devpor $end
$var tri1 1 "! devoe $end
$var wire 1 #! HEX0[7]~output_o $end
$var wire 1 $! HEX0[6]~output_o $end
$var wire 1 %! HEX0[5]~output_o $end
$var wire 1 &! HEX0[4]~output_o $end
$var wire 1 '! HEX0[3]~output_o $end
$var wire 1 (! HEX0[2]~output_o $end
$var wire 1 )! HEX0[1]~output_o $end
$var wire 1 *! HEX0[0]~output_o $end
$var wire 1 +! HEX1[7]~output_o $end
$var wire 1 ,! HEX1[6]~output_o $end
$var wire 1 -! HEX1[5]~output_o $end
$var wire 1 .! HEX1[4]~output_o $end
$var wire 1 /! HEX1[3]~output_o $end
$var wire 1 0! HEX1[2]~output_o $end
$var wire 1 1! HEX1[1]~output_o $end
$var wire 1 2! HEX1[0]~output_o $end
$var wire 1 3! HEX2[7]~output_o $end
$var wire 1 4! HEX2[6]~output_o $end
$var wire 1 5! HEX2[5]~output_o $end
$var wire 1 6! HEX2[4]~output_o $end
$var wire 1 7! HEX2[3]~output_o $end
$var wire 1 8! HEX2[2]~output_o $end
$var wire 1 9! HEX2[1]~output_o $end
$var wire 1 :! HEX2[0]~output_o $end
$var wire 1 ;! HEX3[7]~output_o $end
$var wire 1 <! HEX3[6]~output_o $end
$var wire 1 =! HEX3[5]~output_o $end
$var wire 1 >! HEX3[4]~output_o $end
$var wire 1 ?! HEX3[3]~output_o $end
$var wire 1 @! HEX3[2]~output_o $end
$var wire 1 A! HEX3[1]~output_o $end
$var wire 1 B! HEX3[0]~output_o $end
$var wire 1 C! HEX4[7]~output_o $end
$var wire 1 D! HEX4[6]~output_o $end
$var wire 1 E! HEX4[5]~output_o $end
$var wire 1 F! HEX4[4]~output_o $end
$var wire 1 G! HEX4[3]~output_o $end
$var wire 1 H! HEX4[2]~output_o $end
$var wire 1 I! HEX4[1]~output_o $end
$var wire 1 J! HEX4[0]~output_o $end
$var wire 1 K! HEX5[7]~output_o $end
$var wire 1 L! HEX5[6]~output_o $end
$var wire 1 M! HEX5[5]~output_o $end
$var wire 1 N! HEX5[4]~output_o $end
$var wire 1 O! HEX5[3]~output_o $end
$var wire 1 P! HEX5[2]~output_o $end
$var wire 1 Q! HEX5[1]~output_o $end
$var wire 1 R! HEX5[0]~output_o $end
$var wire 1 S! OUT[39]~output_o $end
$var wire 1 T! OUT[38]~output_o $end
$var wire 1 U! OUT[37]~output_o $end
$var wire 1 V! OUT[36]~output_o $end
$var wire 1 W! OUT[35]~output_o $end
$var wire 1 X! OUT[34]~output_o $end
$var wire 1 Y! OUT[33]~output_o $end
$var wire 1 Z! OUT[32]~output_o $end
$var wire 1 [! OUT[31]~output_o $end
$var wire 1 \! OUT[30]~output_o $end
$var wire 1 ]! OUT[29]~output_o $end
$var wire 1 ^! OUT[28]~output_o $end
$var wire 1 _! OUT[27]~output_o $end
$var wire 1 `! OUT[26]~output_o $end
$var wire 1 a! OUT[25]~output_o $end
$var wire 1 b! OUT[24]~output_o $end
$var wire 1 c! OUT[23]~output_o $end
$var wire 1 d! OUT[22]~output_o $end
$var wire 1 e! OUT[21]~output_o $end
$var wire 1 f! OUT[20]~output_o $end
$var wire 1 g! OUT[19]~output_o $end
$var wire 1 h! OUT[18]~output_o $end
$var wire 1 i! OUT[17]~output_o $end
$var wire 1 j! OUT[16]~output_o $end
$var wire 1 k! OUT[15]~output_o $end
$var wire 1 l! OUT[14]~output_o $end
$var wire 1 m! OUT[13]~output_o $end
$var wire 1 n! OUT[12]~output_o $end
$var wire 1 o! OUT[11]~output_o $end
$var wire 1 p! OUT[10]~output_o $end
$var wire 1 q! OUT[9]~output_o $end
$var wire 1 r! OUT[8]~output_o $end
$var wire 1 s! OUT[7]~output_o $end
$var wire 1 t! OUT[6]~output_o $end
$var wire 1 u! OUT[5]~output_o $end
$var wire 1 v! OUT[4]~output_o $end
$var wire 1 w! OUT[3]~output_o $end
$var wire 1 x! OUT[2]~output_o $end
$var wire 1 y! OUT[1]~output_o $end
$var wire 1 z! OUT[0]~output_o $end
$var wire 1 {! CLOCK_50~input_o $end
$var wire 1 |! CLOCK_50~inputclkctrl_outclk $end
$var wire 1 }! KEY[1]~input_o $end
$var wire 1 ~! inst2|LPM_COUNTER_component|auto_generated|counter_comb_bita0~1_cout $end
$var wire 1 !" inst2|LPM_COUNTER_component|auto_generated|counter_comb_bita0~combout $end
$var wire 1 "" ~GND~combout $end
$var wire 1 #" KEY[0]~input_o $end
$var wire 1 $" inst2|LPM_COUNTER_component|auto_generated|counter_comb_bita0~COUT $end
$var wire 1 %" inst2|LPM_COUNTER_component|auto_generated|counter_comb_bita1~combout $end
$var wire 1 &" inst2|LPM_COUNTER_component|auto_generated|counter_comb_bita1~COUT $end
$var wire 1 '" inst2|LPM_COUNTER_component|auto_generated|counter_comb_bita2~combout $end
$var wire 1 (" inst2|LPM_COUNTER_component|auto_generated|counter_comb_bita2~COUT $end
$var wire 1 )" inst2|LPM_COUNTER_component|auto_generated|counter_comb_bita3~combout $end
$var wire 1 *" inst2|LPM_COUNTER_component|auto_generated|counter_comb_bita3~COUT $end
$var wire 1 +" inst2|LPM_COUNTER_component|auto_generated|counter_comb_bita4~combout $end
$var wire 1 ," inst2|LPM_COUNTER_component|auto_generated|counter_comb_bita4~COUT $end
$var wire 1 -" inst2|LPM_COUNTER_component|auto_generated|counter_comb_bita5~combout $end
$var wire 1 ." inst2|LPM_COUNTER_component|auto_generated|counter_comb_bita5~COUT $end
$var wire 1 /" inst2|LPM_COUNTER_component|auto_generated|counter_comb_bita6~combout $end
$var wire 1 0" inst2|LPM_COUNTER_component|auto_generated|counter_comb_bita6~COUT $end
$var wire 1 1" inst2|LPM_COUNTER_component|auto_generated|counter_comb_bita7~combout $end
$var wire 1 2" inst2|LPM_COUNTER_component|auto_generated|counter_comb_bita7~COUT $end
$var wire 1 3" inst2|LPM_COUNTER_component|auto_generated|counter_comb_bita8~combout $end
$var wire 1 4" inst2|LPM_COUNTER_component|auto_generated|counter_comb_bita8~COUT $end
$var wire 1 5" inst2|LPM_COUNTER_component|auto_generated|counter_comb_bita9~combout $end
$var wire 1 6" inst2|LPM_COUNTER_component|auto_generated|counter_comb_bita9~COUT $end
$var wire 1 7" inst2|LPM_COUNTER_component|auto_generated|counter_comb_bita10~combout $end
$var wire 1 8" inst2|LPM_COUNTER_component|auto_generated|counter_comb_bita10~COUT $end
$var wire 1 9" inst2|LPM_COUNTER_component|auto_generated|counter_comb_bita11~combout $end
$var wire 1 :" inst2|LPM_COUNTER_component|auto_generated|counter_comb_bita11~COUT $end
$var wire 1 ;" inst2|LPM_COUNTER_component|auto_generated|counter_comb_bita12~combout $end
$var wire 1 <" inst2|LPM_COUNTER_component|auto_generated|counter_comb_bita12~COUT $end
$var wire 1 =" inst2|LPM_COUNTER_component|auto_generated|counter_comb_bita13~combout $end
$var wire 1 >" inst2|LPM_COUNTER_component|auto_generated|counter_comb_bita13~COUT $end
$var wire 1 ?" inst2|LPM_COUNTER_component|auto_generated|counter_comb_bita14~combout $end
$var wire 1 @" inst2|LPM_COUNTER_component|auto_generated|counter_comb_bita14~COUT $end
$var wire 1 A" inst2|LPM_COUNTER_component|auto_generated|counter_comb_bita15~combout $end
$var wire 1 B" inst2|LPM_COUNTER_component|auto_generated|counter_comb_bita15~COUT $end
$var wire 1 C" inst2|LPM_COUNTER_component|auto_generated|counter_comb_bita16~combout $end
$var wire 1 D" inst2|LPM_COUNTER_component|auto_generated|counter_comb_bita16~COUT $end
$var wire 1 E" inst2|LPM_COUNTER_component|auto_generated|counter_comb_bita17~combout $end
$var wire 1 F" inst2|LPM_COUNTER_component|auto_generated|counter_comb_bita17~COUT $end
$var wire 1 G" inst2|LPM_COUNTER_component|auto_generated|counter_comb_bita18~combout $end
$var wire 1 H" inst2|LPM_COUNTER_component|auto_generated|counter_comb_bita18~COUT $end
$var wire 1 I" inst2|LPM_COUNTER_component|auto_generated|counter_comb_bita19~combout $end
$var wire 1 J" inst2|LPM_COUNTER_component|auto_generated|counter_comb_bita19~COUT $end
$var wire 1 K" inst2|LPM_COUNTER_component|auto_generated|counter_comb_bita20~combout $end
$var wire 1 L" inst2|LPM_COUNTER_component|auto_generated|counter_comb_bita20~COUT $end
$var wire 1 M" inst2|LPM_COUNTER_component|auto_generated|counter_comb_bita21~combout $end
$var wire 1 N" inst2|LPM_COUNTER_component|auto_generated|counter_comb_bita21~COUT $end
$var wire 1 O" inst2|LPM_COUNTER_component|auto_generated|counter_comb_bita22~combout $end
$var wire 1 P" inst2|LPM_COUNTER_component|auto_generated|counter_comb_bita22~COUT $end
$var wire 1 Q" inst2|LPM_COUNTER_component|auto_generated|counter_comb_bita23~combout $end
$var wire 1 R" inst9|leds[6]~16_combout $end
$var wire 1 S" inst9|leds[5]~17_combout $end
$var wire 1 T" inst9|leds[4]~18_combout $end
$var wire 1 U" inst9|leds[3]~19_combout $end
$var wire 1 V" inst9|leds[2]~20_combout $end
$var wire 1 W" inst9|leds[1]~21_combout $end
$var wire 1 X" inst9|leds[0]~22_combout $end
$var wire 1 Y" inst2|LPM_COUNTER_component|auto_generated|counter_comb_bita23~COUT $end
$var wire 1 Z" inst2|LPM_COUNTER_component|auto_generated|counter_comb_bita24~combout $end
$var wire 1 [" inst2|LPM_COUNTER_component|auto_generated|counter_comb_bita24~COUT $end
$var wire 1 \" inst2|LPM_COUNTER_component|auto_generated|counter_comb_bita25~combout $end
$var wire 1 ]" inst2|LPM_COUNTER_component|auto_generated|counter_comb_bita25~COUT $end
$var wire 1 ^" inst2|LPM_COUNTER_component|auto_generated|counter_comb_bita26~combout $end
$var wire 1 _" inst2|LPM_COUNTER_component|auto_generated|counter_comb_bita26~COUT $end
$var wire 1 `" inst2|LPM_COUNTER_component|auto_generated|counter_comb_bita27~combout $end
$var wire 1 a" inst10|leds[6]~16_combout $end
$var wire 1 b" inst10|leds[5]~17_combout $end
$var wire 1 c" inst10|leds[4]~18_combout $end
$var wire 1 d" inst10|leds[3]~19_combout $end
$var wire 1 e" inst10|leds[2]~20_combout $end
$var wire 1 f" inst10|leds[1]~21_combout $end
$var wire 1 g" inst10|leds[0]~22_combout $end
$var wire 1 h" inst2|LPM_COUNTER_component|auto_generated|counter_comb_bita27~COUT $end
$var wire 1 i" inst2|LPM_COUNTER_component|auto_generated|counter_comb_bita28~combout $end
$var wire 1 j" inst2|LPM_COUNTER_component|auto_generated|counter_comb_bita28~COUT $end
$var wire 1 k" inst2|LPM_COUNTER_component|auto_generated|counter_comb_bita29~combout $end
$var wire 1 l" inst2|LPM_COUNTER_component|auto_generated|counter_comb_bita29~COUT $end
$var wire 1 m" inst2|LPM_COUNTER_component|auto_generated|counter_comb_bita30~combout $end
$var wire 1 n" inst2|LPM_COUNTER_component|auto_generated|counter_comb_bita30~COUT $end
$var wire 1 o" inst2|LPM_COUNTER_component|auto_generated|counter_comb_bita31~combout $end
$var wire 1 p" inst3|leds[6]~16_combout $end
$var wire 1 q" inst3|leds[5]~17_combout $end
$var wire 1 r" inst3|leds[4]~18_combout $end
$var wire 1 s" inst3|leds[3]~19_combout $end
$var wire 1 t" inst3|leds[2]~20_combout $end
$var wire 1 u" inst3|leds[1]~21_combout $end
$var wire 1 v" inst3|leds[0]~22_combout $end
$var wire 1 w" inst2|LPM_COUNTER_component|auto_generated|counter_comb_bita31~COUT $end
$var wire 1 x" inst2|LPM_COUNTER_component|auto_generated|counter_comb_bita32~combout $end
$var wire 1 y" inst2|LPM_COUNTER_component|auto_generated|counter_comb_bita32~COUT $end
$var wire 1 z" inst2|LPM_COUNTER_component|auto_generated|counter_comb_bita33~combout $end
$var wire 1 {" inst2|LPM_COUNTER_component|auto_generated|counter_comb_bita33~COUT $end
$var wire 1 |" inst2|LPM_COUNTER_component|auto_generated|counter_comb_bita34~combout $end
$var wire 1 }" inst2|LPM_COUNTER_component|auto_generated|counter_comb_bita34~COUT $end
$var wire 1 ~" inst2|LPM_COUNTER_component|auto_generated|counter_comb_bita35~combout $end
$var wire 1 !# inst6|leds[6]~16_combout $end
$var wire 1 "# inst6|leds[5]~17_combout $end
$var wire 1 ## inst6|leds[4]~18_combout $end
$var wire 1 $# inst6|leds[3]~19_combout $end
$var wire 1 %# inst6|leds[2]~20_combout $end
$var wire 1 &# inst6|leds[1]~21_combout $end
$var wire 1 '# inst6|leds[0]~22_combout $end
$var wire 1 (# inst2|LPM_COUNTER_component|auto_generated|counter_comb_bita35~COUT $end
$var wire 1 )# inst2|LPM_COUNTER_component|auto_generated|counter_comb_bita36~combout $end
$var wire 1 *# inst2|LPM_COUNTER_component|auto_generated|counter_comb_bita36~COUT $end
$var wire 1 +# inst2|LPM_COUNTER_component|auto_generated|counter_comb_bita37~combout $end
$var wire 1 ,# inst2|LPM_COUNTER_component|auto_generated|counter_comb_bita37~COUT $end
$var wire 1 -# inst2|LPM_COUNTER_component|auto_generated|counter_comb_bita38~combout $end
$var wire 1 .# inst2|LPM_COUNTER_component|auto_generated|counter_comb_bita38~COUT $end
$var wire 1 /# inst2|LPM_COUNTER_component|auto_generated|counter_comb_bita39~combout $end
$var wire 1 0# inst|leds[6]~16_combout $end
$var wire 1 1# inst|leds[5]~17_combout $end
$var wire 1 2# inst|leds[4]~18_combout $end
$var wire 1 3# inst|leds[3]~19_combout $end
$var wire 1 4# inst|leds[2]~20_combout $end
$var wire 1 5# inst|leds[1]~21_combout $end
$var wire 1 6# inst|leds[0]~22_combout $end
$var wire 1 7# inst2|LPM_COUNTER_component|auto_generated|counter_reg_bit [39] $end
$var wire 1 8# inst2|LPM_COUNTER_component|auto_generated|counter_reg_bit [38] $end
$var wire 1 9# inst2|LPM_COUNTER_component|auto_generated|counter_reg_bit [37] $end
$var wire 1 :# inst2|LPM_COUNTER_component|auto_generated|counter_reg_bit [36] $end
$var wire 1 ;# inst2|LPM_COUNTER_component|auto_generated|counter_reg_bit [35] $end
$var wire 1 <# inst2|LPM_COUNTER_component|auto_generated|counter_reg_bit [34] $end
$var wire 1 =# inst2|LPM_COUNTER_component|auto_generated|counter_reg_bit [33] $end
$var wire 1 ># inst2|LPM_COUNTER_component|auto_generated|counter_reg_bit [32] $end
$var wire 1 ?# inst2|LPM_COUNTER_component|auto_generated|counter_reg_bit [31] $end
$var wire 1 @# inst2|LPM_COUNTER_component|auto_generated|counter_reg_bit [30] $end
$var wire 1 A# inst2|LPM_COUNTER_component|auto_generated|counter_reg_bit [29] $end
$var wire 1 B# inst2|LPM_COUNTER_component|auto_generated|counter_reg_bit [28] $end
$var wire 1 C# inst2|LPM_COUNTER_component|auto_generated|counter_reg_bit [27] $end
$var wire 1 D# inst2|LPM_COUNTER_component|auto_generated|counter_reg_bit [26] $end
$var wire 1 E# inst2|LPM_COUNTER_component|auto_generated|counter_reg_bit [25] $end
$var wire 1 F# inst2|LPM_COUNTER_component|auto_generated|counter_reg_bit [24] $end
$var wire 1 G# inst2|LPM_COUNTER_component|auto_generated|counter_reg_bit [23] $end
$var wire 1 H# inst2|LPM_COUNTER_component|auto_generated|counter_reg_bit [22] $end
$var wire 1 I# inst2|LPM_COUNTER_component|auto_generated|counter_reg_bit [21] $end
$var wire 1 J# inst2|LPM_COUNTER_component|auto_generated|counter_reg_bit [20] $end
$var wire 1 K# inst2|LPM_COUNTER_component|auto_generated|counter_reg_bit [19] $end
$var wire 1 L# inst2|LPM_COUNTER_component|auto_generated|counter_reg_bit [18] $end
$var wire 1 M# inst2|LPM_COUNTER_component|auto_generated|counter_reg_bit [17] $end
$var wire 1 N# inst2|LPM_COUNTER_component|auto_generated|counter_reg_bit [16] $end
$var wire 1 O# inst2|LPM_COUNTER_component|auto_generated|counter_reg_bit [15] $end
$var wire 1 P# inst2|LPM_COUNTER_component|auto_generated|counter_reg_bit [14] $end
$var wire 1 Q# inst2|LPM_COUNTER_component|auto_generated|counter_reg_bit [13] $end
$var wire 1 R# inst2|LPM_COUNTER_component|auto_generated|counter_reg_bit [12] $end
$var wire 1 S# inst2|LPM_COUNTER_component|auto_generated|counter_reg_bit [11] $end
$var wire 1 T# inst2|LPM_COUNTER_component|auto_generated|counter_reg_bit [10] $end
$var wire 1 U# inst2|LPM_COUNTER_component|auto_generated|counter_reg_bit [9] $end
$var wire 1 V# inst2|LPM_COUNTER_component|auto_generated|counter_reg_bit [8] $end
$var wire 1 W# inst2|LPM_COUNTER_component|auto_generated|counter_reg_bit [7] $end
$var wire 1 X# inst2|LPM_COUNTER_component|auto_generated|counter_reg_bit [6] $end
$var wire 1 Y# inst2|LPM_COUNTER_component|auto_generated|counter_reg_bit [5] $end
$var wire 1 Z# inst2|LPM_COUNTER_component|auto_generated|counter_reg_bit [4] $end
$var wire 1 [# inst2|LPM_COUNTER_component|auto_generated|counter_reg_bit [3] $end
$var wire 1 \# inst2|LPM_COUNTER_component|auto_generated|counter_reg_bit [2] $end
$var wire 1 ]# inst2|LPM_COUNTER_component|auto_generated|counter_reg_bit [1] $end
$var wire 1 ^# inst2|LPM_COUNTER_component|auto_generated|counter_reg_bit [0] $end
$upscope $end
$upscope $end
$enddefinitions $end
#0
$dumpvars
0!
b11 "
x*
x)
x(
x'
x&
x%
x$
0#
x2
x1
x0
x/
x.
x-
x,
0+
x:
x9
x8
x7
x6
x5
x4
03
xB
xA
x@
x?
x>
x=
x<
0;
xJ
xI
xH
xG
xF
xE
xD
0C
0R
0Q
0P
0O
0N
0M
1L
0K
xz
xy
xx
xw
xv
xu
xt
xs
xr
xq
xp
xo
xn
xm
xl
xk
xj
xi
xh
xg
xf
xe
xd
xc
xb
xa
x`
x_
x^
x]
x\
x[
xZ
xY
xX
xW
xV
xU
xT
xS
0{
1|
x}
1~
1!!
1"!
0#!
x$!
x%!
x&!
x'!
x(!
x)!
x*!
0+!
x,!
x-!
x.!
x/!
x0!
x1!
x2!
03!
x4!
x5!
x6!
x7!
x8!
x9!
x:!
0;!
x<!
x=!
x>!
x?!
x@!
xA!
xB!
0C!
xD!
xE!
xF!
xG!
xH!
xI!
xJ!
0K!
1L!
0M!
0N!
0O!
0P!
0Q!
0R!
xS!
xT!
xU!
xV!
xW!
xX!
xY!
xZ!
x[!
x\!
x]!
x^!
x_!
x`!
xa!
xb!
xc!
xd!
xe!
xf!
xg!
xh!
xi!
xj!
xk!
xl!
xm!
xn!
xo!
xp!
xq!
xr!
xs!
xt!
xu!
xv!
xw!
xx!
xy!
xz!
0{!
x|!
1}!
x~!
x!"
0""
1#"
x$"
x%"
x&"
x'"
x("
x)"
x*"
x+"
x,"
x-"
x."
x/"
x0"
x1"
x2"
x3"
x4"
x5"
x6"
x7"
x8"
x9"
x:"
x;"
x<"
x="
x>"
x?"
x@"
xA"
xB"
xC"
xD"
xE"
xF"
xG"
xH"
xI"
xJ"
xK"
xL"
xM"
xN"
xO"
xP"
xQ"
xR"
xS"
xT"
xU"
xV"
xW"
xX"
xY"
xZ"
x["
x\"
x]"
x^"
x_"
x`"
xa"
xb"
xc"
xd"
xe"
xf"
xg"
xh"
xi"
xj"
xk"
xl"
xm"
xn"
xo"
xp"
xq"
xr"
xs"
xt"
xu"
xv"
xw"
xx"
xy"
xz"
x{"
x|"
x}"
x~"
x!#
x"#
x##
x$#
x%#
x&#
x'#
x(#
x)#
x*#
x+#
x,#
x-#
x.#
x/#
x0#
x1#
x2#
x3#
x4#
x5#
x6#
0^#
0]#
0\#
0[#
0Z#
0Y#
0X#
0W#
0V#
0U#
0T#
0S#
0R#
0Q#
0P#
0O#
0N#
0M#
0L#
0K#
0J#
0I#
0H#
0G#
0F#
0E#
0D#
0C#
0B#
0A#
0@#
0?#
0>#
0=#
0<#
0;#
0:#
09#
08#
07#
$end
#173
0|!
#661
05#
#761
0>"
0:"
06"
#762
0l"
0h"
0]"
0B"
02"
0."
#763
0Y"
0N"
0J"
0*"
#764
0w"
#765
0(#
#766
0&"
#767
0F"
#768
0{"
#791
0,#
#895
18"
14"
#896
1_"
1["
1D"
1@"
10"
1$"
#897
1n"
1P"
#898
1y"
1<"
#899
1j"
1,"
1("
#900
1L"
1H"
#902
1}"
#912
1*#
#923
1.#
#960
06#
#1190
02#
#1273
07"
0;"
0?"
#1274
0/"
03"
0C"
0^"
0i"
0m"
#1275
0+"
0K"
0O"
0Z"
#1276
0x"
#1277
0)#
#1278
0'"
#1279
0G"
#1280
0|"
#1303
0-#
#1407
05"
09"
#1408
0%"
01"
0A"
0E"
0\"
0`"
#1409
0Q"
0o"
#1410
0="
0z"
#1411
0)"
0-"
0k"
#1412
0I"
0M"
#1414
0~"
#1424
0+#
#1435
0/#
#1477
04#
#1498
03#
#1505
01#
#1508
00#
#1801
0&#
#1948
0'#
#1951
0$#
#1960
0##
#2167
0"#
#2169
0%#
#2192
0!#
#3062
0u"
#3100
0t"
#3284
0s"
#3285
0q"
0r"
#3286
0v"
#3337
0l!
0l
#3364
0m!
0m
#3427
0k!
0k
#3571
0p!
0p
#3607
0g!
0g
#3611
0x!
0x
#3624
0j!
0j
#3637
0r!
0r
#3655
0h!
0h
#3746
0W!
0W
#3759
0e!
0w!
0w
0e
#3792
0d!
0d
#3799
0n!
0n
#3803
0f!
0f
#3818
0q!
0q
#3852
0c!
0c
#3884
0i!
0i
#3908
0u!
0u
#3916
0o!
0o
#3958
0V!
0X!
0X
0V
#3988
0Z!
0Z
#3997
0p"
#4055
0S!
0S
#4086
0T!
0T
#4177
0f"
#4262
0^!
0^
#4270
0b"
0g"
#4271
0c"
0d"
#4292
0a"
0e"
#4299
0U!
0U
#4322
0y!
0y
#4365
0F!
0F
#4387
0Y!
0Y
#4395
0z!
0z
#4536
0_!
0_
#4616
0`!
0`
#4634
0v!
0v
#4675
0I!
0I
#4686
0E!
0E
#4727
0J!
0J
#4868
0s!
0s
#4873
1D!
1D
#5156
0>!
0>
#5227
0H!
0H
#5239
0V"
#5258
0G!
0G
#5344
0=!
0=
#5391
1<!
1<
#5411
0]!
0]
#5431
1~!
#5537
0?!
0?
#5554
0S"
#5586
0W"
#5607
0R"
#5617
0T"
#5626
0U"
#5630
0X"
#5967
1!"
#6074
0\!
0\
#6124
0[!
0[
#6270
09!
09
#6356
0t!
0t
#6476
0b!
0b
#6555
0A!
0A
#6647
08!
08
#6731
0B!
0B
#6797
06!
06
#6806
0:!
0:
#6814
07!
07
#6853
05!
05
#6869
0a!
0a
#7450
0@!
0@
#7711
14!
14
#7770
00!
00
#7772
0.!
0.
#8034
01!
01
#8118
0/!
0/
#8818
0-!
0-
#8950
02!
02
#9268
0&!
0&
#9454
1,!
1,
#9813
0'!
0'
#10000
1!
#10338
1$!
1$
#10541
0(!
0(
#10679
0*!
0*
#10694
1{!
#10881
1|!
#11574
0)!
0)
#12243
0%!
0%
#13259
1^#
#13935
0$"
#13995
0!"
#14471
1%"
#17718
1z!
1z
#20000
0!
#20875
0{!
#21048
0|!
#30000
1!
#30694
1{!
#30881
1|!
#33259
0^#
1]#
#33991
0%"
#34065
1&"
#34069
1!"
#34155
1$"
#34221
0&"
#34691
1%"
#37654
0z!
0z
#37664
1y!
1y
#40000
0!
#40875
0{!
#41048
0|!
#50000
1!
#50694
1{!
#50881
1|!
#53259
1^#
#53935
0$"
#53995
0!"
#54001
1&"
#54447
0%"
#54537
1'"
#57718
1z!
1z
#60000
0!
#60875
0{!
#61048
0|!
#70000
1!
#70694
1{!
#70881
1|!
#73259
0^#
0]#
1\#
#73938
0("
#74000
0'"
#74025
0&"
#74069
1!"
#74074
1%"
#74091
1("
#74155
1$"
#74561
1'"
#74667
0%"
#76973
1x!
1x
#77581
0y!
0y
#77654
0z!
0z
#80000
0!
#80875
0{!
#81048
0|!
#90000
1!
#90694
1{!
#90881
1|!
#93259
1^#
#93935
0$"
#93995
0!"
#94471
1%"
#97718
1z!
1z
#100000
0!
#100875
0{!
#101048
0|!
#110000
1!
#110694
1{!
#110881
1|!
#113259
0^#
1]#
#113991
0%"
#114065
1&"
#114069
1!"
#114131
0("
#114155
1$"
#114221
0&"
#114287
1("
#114691
1%"
#117654
0z!
0z
#117664
1y!
1y
#120000
0!
#120875
0{!
#121048
0|!
#130000
1!
#130694
1{!
#130881
1|!
#133259
1^#
#133935
0$"
#133995
0!"
#134001
1&"
#134067
0("
#134447
0%"
#134513
0'"
#134603
1)"
#137718
1z!
1z
#140000
0!
#140875
0{!
#141048
0|!
#150000
1!
#150694
1{!
#150881
1|!
#153259
0^#
0]#
0\#
1[#
#153991
0)"
#154025
0&"
#154069
1!"
#154074
1%"
#154075
1*"
#154155
1$"
#154158
1("
#154224
0*"
#154667
0%"
#154694
1)"
#156870
0x!
0x
#157149
1w!
1w
#157581
0y!
0y
#157654
0z!
0z
#160000
0!
#160875
0{!
#161048
0|!
#170000
1!
#170694
1{!
#170881
1|!
#173259
1^#
#173935
0$"
#173995
0!"
#174471
1%"
#177718
1z!
1z
#180000
0!
#180875
0{!
#181048
0|!
#190000
1!
#190694
1{!
#190881
1|!
#193259
0^#
1]#
#193991
0%"
#194065
1&"
#194069
1!"
#194155
1$"
#194221
0&"
#194691
1%"
#197654
0z!
0z
#197664
1y!
1y
#200000
0!
#200875
0{!
#201048
0|!
#210000
1!
#210694
1{!
#210881
1|!
#213259
1^#
#213935
0$"
#213995
0!"
#214001
1&"
#214447
0%"
#214537
1'"
#217718
1z!
1z
#220000
0!
#220875
0{!
#221048
0|!
#230000
1!
#230694
1{!
#230881
1|!
#233259
0^#
0]#
1\#
#233938
0("
#234000
0'"
#234004
1*"
#234025
0&"
#234069
1!"
#234074
1%"
#234091
1("
#234155
1$"
#234157
0*"
#234561
1'"
#234667
0%"
#236973
1x!
1x
#237581
0y!
0y
#237654
0z!
0z
#240000
0!
#240875
0{!
#241048
0|!
#250000
1!
#250694
1{!
#250881
1|!
#253259
1^#
#253935
0$"
#253995
0!"
#254471
1%"
#257718
1z!
1z
#260000
0!
#260875
0{!
#261048
0|!
#270000
1!
#270694
1{!
#270881
1|!
#273259
0^#
1]#
#273991
0%"
#274065
1&"
#274069
1!"
#274131
0("
#274155
1$"
#274197
1*"
